%YAML 1.1
%TAG !u! tag:unity3d.com,2011:
--- !u!114 &11400000
MonoBehaviour:
  m_ObjectHideFlags: 0
  m_CorrespondingSourceObject: {fileID: 0}
  m_PrefabInstance: {fileID: 0}
  m_PrefabAsset: {fileID: 0}
  m_GameObject: {fileID: 0}
  m_Enabled: 1
  m_EditorHideFlags: 0
  m_Script: {fileID: 11500000, guid: 9d1514134bc4fbd41bb739b1b9a49231, type: 3}
  m_Name: WoodenLongWall
  m_EditorClassIdentifier: 
  m_WeightedSprite: {fileID: 0}
  m_Weight: 0
  m_DefaultSprite: {fileID: 21300000, guid: acc1768b2c5ae5e409c114db43281cc2, type: 3}
  m_DefaultGameObject: {fileID: 0}
  m_DefaultColliderType: 1
  m_TilingRules:
  - m_Neighbors: 0000000002000000000000000200000001000000000000000100000000000000
    m_Sprites:
    - {fileID: 21300000, guid: 18bd9d052c5554c408e202bf7b7f56dc, type: 3}
    m_GameObject: {fileID: 0}
    m_AnimationSpeed: 1
    m_PerlinScale: 0.5
    m_RuleTransform: 0
    m_Output: 0
    m_ColliderType: 1
    m_RandomTransform: 0
  - m_Neighbors: 0000000001000000000000000200000001000000000000000100000000000000
    m_Sprites:
    - {fileID: 21300000, guid: acc1768b2c5ae5e409c114db43281cc2, type: 3}
    m_GameObject: {fileID: 0}
    m_AnimationSpeed: 1
    m_PerlinScale: 0.5
    m_RuleTransform: 0
    m_Output: 0
    m_ColliderType: 1
    m_RandomTransform: 0
  - m_Neighbors: 0000000001000000000000000200000001000000000000000200000000000000
    m_Sprites:
    - {fileID: 21300000, guid: d231595f247a0404fb967d26f44dca13, type: 3}
    m_GameObject: {fileID: 0}
    m_AnimationSpeed: 1
    m_PerlinScale: 0.5
    m_RuleTransform: 0
    m_Output: 0
    m_ColliderType: 1
    m_RandomTransform: 0
  - m_Neighbors: 0000000001000000000000000100000001000000000000000200000000000000
    m_Sprites:
    - {fileID: 21300000, guid: 2d3f370bb8a742d49bbde4071203347a, type: 3}
    m_GameObject: {fileID: 0}
    m_AnimationSpeed: 1
    m_PerlinScale: 0.5
    m_RuleTransform: 0
    m_Output: 0
    m_ColliderType: 1
    m_RandomTransform: 0
  - m_Neighbors: 0000000002000000000000000100000001000000000000000100000000000000
    m_Sprites:
    - {fileID: 21300000, guid: 61dc59235424b2c458d794d1f7b430b1, type: 3}
    m_GameObject: {fileID: 0}
    m_AnimationSpeed: 1
    m_PerlinScale: 0.5
    m_RuleTransform: 0
    m_Output: 0
    m_ColliderType: 1
    m_RandomTransform: 0
  - m_Neighbors: 0000000002000000000000000100000002000000000000000100000000000000
    m_Sprites:
    - {fileID: 21300000, guid: 94c4a3243666bf944b964346fbc654de, type: 3}
    m_GameObject: {fileID: 0}
    m_AnimationSpeed: 1
    m_PerlinScale: 0.5
    m_RuleTransform: 0
    m_Output: 0
    m_ColliderType: 1
    m_RandomTransform: 0
  - m_Neighbors: 0000000001000000000000000100000002000000000000000100000000000000
    m_Sprites:
    - {fileID: 21300000, guid: e9fb0fa76acb251458d1bb2c9dd321ab, type: 3}
    m_GameObject: {fileID: 0}
    m_AnimationSpeed: 1
    m_PerlinScale: 0.5
    m_RuleTransform: 0
    m_Output: 0
    m_ColliderType: 1
    m_RandomTransform: 0
  - m_Neighbors: 0000000001000000000000000100000002000000000000000200000000000000
    m_Sprites:
    - {fileID: 21300000, guid: 503b5628a8a8a214f88999e9332fb85d, type: 3}
    m_GameObject: {fileID: 0}
    m_AnimationSpeed: 1
    m_PerlinScale: 0.5
    m_RuleTransform: 0
    m_Output: 0
    m_ColliderType: 1
    m_RandomTransform: 0
