%YAML 1.1
%TAG !u! tag:unity3d.com,2011:
--- !u!114 &11400000
MonoBehaviour:
  m_ObjectHideFlags: 0
  m_CorrespondingSourceObject: {fileID: 0}
  m_PrefabInstance: {fileID: 0}
  m_PrefabAsset: {fileID: 0}
  m_GameObject: {fileID: 0}
  m_Enabled: 1
  m_EditorHideFlags: 0
  m_Script: {fileID: 11500000, guid: a72bd5a824c701640a42daf1d4b1fec1, type: 3}
  m_Name: Day4
  m_EditorClassIdentifier: 
  levelName: Day4
  levelScene: GameScene
  startPointOfEntryIndex: 0
  useSceneSpawnPosition: 0
  playerCharacterPrefab: {fileID: 6906960020160411074, guid: 3f7a3101863380949a8740adc389f76a,
    type: 3}
  useSceneCharacter: 0
  levelMusic: {fileID: 0}
  afterBattleMusic: {fileID: 0}
