%YAML 1.1
%TAG !u! tag:unity3d.com,2011:
--- !u!114 &11400000
MonoBehaviour:
  m_ObjectHideFlags: 0
  m_CorrespondingSourceObject: {fileID: 0}
  m_PrefabInstance: {fileID: 0}
  m_PrefabAsset: {fileID: 0}
  m_GameObject: {fileID: 0}
  m_Enabled: 1
  m_EditorHideFlags: 0
  m_Script: {fileID: 11500000, guid: 87e018b4a0348f1429fb99fef3face94, type: 3}
  m_Name: ChemicalBurn
  m_EditorClassIdentifier: 
  id: 2
  duration: 3
  chance: 1
  maxStackCount: 5
  nature: 3
  impacts:
  - targetId: 1
    type: 3
    defaultValue: 0
    propertyId: 0
