%YAML 1.1
%TAG !u! tag:unity3d.com,2011:
--- !u!114 &11400000
MonoBehaviour:
  m_ObjectHideFlags: 0
  m_CorrespondingSourceObject: {fileID: 0}
  m_PrefabInstance: {fileID: 0}
  m_PrefabAsset: {fileID: 0}
  m_GameObject: {fileID: 0}
  m_Enabled: 1
  m_EditorHideFlags: 0
  m_Script: {fileID: 11500000, guid: 87e018b4a0348f1429fb99fef3face94, type: 3}
  m_Name: LaserDamage
  m_EditorClassIdentifier: 
  id: 17
  duration: 0
  chance: 1
  maxStackCount: 0
  nature: 1
  impacts:
  - targetId: 1
    type: 0
    defaultValue: 100
    propertyId: 28
