%YAML 1.1
%TAG !u! tag:unity3d.com,2011:
--- !u!114 &11400000
MonoBehaviour:
  m_ObjectHideFlags: 0
  m_CorrespondingSourceObject: {fileID: 0}
  m_PrefabInstance: {fileID: 0}
  m_PrefabAsset: {fileID: 0}
  m_GameObject: {fileID: 0}
  m_Enabled: 1
  m_EditorHideFlags: 0
  m_Script: {fileID: 11500000, guid: 0c20eb76de1b9774783344c06e94e56b, type: 3}
  m_Name: FastMissiles
  m_EditorClassIdentifier: 
  name: FastMissiles
  path: Items/Modules/FastMissiles
  id: 1011
  icon: {fileID: 21300000, guid: 612a2c07a7035124e972a4b67bb655b9, type: 3}
  description: 
  estimatedCost: 500
  isStackable: 0
  maxStackCount: 1
  tags:
  - Missiles
  type: 1
  keyWords:
  - targetId: 18
    minValue: 500
    maxValue: 500
    isPercent: 0
