%YAML 1.1
%TAG !u! tag:unity3d.com,2011:
--- !u!114 &11400000
MonoBehaviour:
  m_ObjectHideFlags: 0
  m_CorrespondingSourceObject: {fileID: 0}
  m_PrefabInstance: {fileID: 0}
  m_PrefabAsset: {fileID: 0}
  m_GameObject: {fileID: 0}
  m_Enabled: 1
  m_EditorHideFlags: 0
  m_Script: {fileID: 11500000, guid: 0c20eb76de1b9774783344c06e94e56b, type: 3}
  m_Name: SmallOptic
  m_EditorClassIdentifier: 
  name: SmallOptic
  path: Items/Modules/SmallOptic
  id: 1002
  icon: {fileID: 21300000, guid: a2a021c3afbafa94ca539eb2754ad471, type: 3}
  description: Small optic sight for shooting on medium distances
  estimatedCost: 150
  isStackable: 0
  maxStackCount: 1
  tags:
  - Module
  - Sight
  type: 1
  keyWords:
  - targetId: 12
    minValue: 10
    maxValue: 15
    isPercent: 0
  - targetId: 24
    minValue: 6
    maxValue: 10
    isPercent: 0
