%YAML 1.1
%TAG !u! tag:unity3d.com,2011:
--- !u!74 &7400000
AnimationClip:
  m_ObjectHideFlags: 0
  m_CorrespondingSourceObject: {fileID: 0}
  m_PrefabInstance: {fileID: 0}
  m_PrefabAsset: {fileID: 0}
  m_Name: SoldierWalk
  serializedVersion: 6
  m_Legacy: 0
  m_Compressed: 0
  m_UseHighQualityCurve: 1
  m_RotationCurves: []
  m_CompressedRotationCurves: []
  m_EulerCurves: []
  m_PositionCurves: []
  m_ScaleCurves: []
  m_FloatCurves: []
  m_PPtrCurves:
  - curve:
    - time: 0
      value: {fileID: 21300000, guid: 93970c5bc21d38a40804b5efe6a4fbf3, type: 3}
    - time: 0.016666668
      value: {fileID: 21300000, guid: d362b6d143cbee64981370652fa2d85b, type: 3}
    - time: 0.033333335
      value: {fileID: 21300000, guid: 2f944d6c3df28ba4fbf0caf234c72d64, type: 3}
    - time: 0.05
      value: {fileID: 21300000, guid: 74aa7e8e2325308428a04a794033da31, type: 3}
    - time: 0.06666667
      value: {fileID: 21300000, guid: 05494fa46e9559e4fb425754fc62385d, type: 3}
    - time: 0.083333336
      value: {fileID: 21300000, guid: c835fc521da3de24d85509e4226d9871, type: 3}
    - time: 0.1
      value: {fileID: 21300000, guid: 72227afd7ef1b394ab44eab914294ab2, type: 3}
    - time: 0.11666667
      value: {fileID: 21300000, guid: e41bb0e3771db6f48bdf3c542d09c009, type: 3}
    - time: 0.13333334
      value: {fileID: 21300000, guid: 2c50165f1f617c4478ef7d082eeb2239, type: 3}
    - time: 0.15
      value: {fileID: 21300000, guid: 3ecdf39dd47281e4e92768d84dd22ec0, type: 3}
    - time: 0.16666667
      value: {fileID: 21300000, guid: a2a0b70544fb4334180c0349349db050, type: 3}
    - time: 0.18333334
      value: {fileID: 21300000, guid: 70897cb78c057d2458c7cc3dd5f88453, type: 3}
    - time: 0.2
      value: {fileID: 21300000, guid: 0d5643aaa63b23044b627abc49c26703, type: 3}
    - time: 0.21666667
      value: {fileID: 21300000, guid: 4f1f3e49f57c04044818a1e7ebf31a5a, type: 3}
    - time: 0.23333333
      value: {fileID: 21300000, guid: 954c926e58634744f93beabaf9218f2f, type: 3}
    - time: 0.25
      value: {fileID: 21300000, guid: 31b30c783a1066247a1f11b7207b9665, type: 3}
    - time: 0.26666668
      value: {fileID: 21300000, guid: 2d25a49f5e18e5048baafec513d4af59, type: 3}
    - time: 0.28333333
      value: {fileID: 21300000, guid: 5cbc1058dd8faa4458196557d0faa3b0, type: 3}
    - time: 0.3
      value: {fileID: 21300000, guid: a6817da6ffac05f4f98ee075bec56474, type: 3}
    - time: 0.31666666
      value: {fileID: 21300000, guid: 3ca4f6bc28911fb4e92f84e77011cb1a, type: 3}
    attribute: m_Sprite
    path: 
    classID: 212
    script: {fileID: 0}
  m_SampleRate: 60
  m_WrapMode: 0
  m_Bounds:
    m_Center: {x: 0, y: 0, z: 0}
    m_Extent: {x: 0, y: 0, z: 0}
  m_ClipBindingConstant:
    genericBindings:
    - serializedVersion: 2
      path: 0
      attribute: 0
      script: {fileID: 0}
      typeID: 212
      customType: 23
      isPPtrCurve: 1
    pptrCurveMapping:
    - {fileID: 21300000, guid: 93970c5bc21d38a40804b5efe6a4fbf3, type: 3}
    - {fileID: 21300000, guid: d362b6d143cbee64981370652fa2d85b, type: 3}
    - {fileID: 21300000, guid: 2f944d6c3df28ba4fbf0caf234c72d64, type: 3}
    - {fileID: 21300000, guid: 74aa7e8e2325308428a04a794033da31, type: 3}
    - {fileID: 21300000, guid: 05494fa46e9559e4fb425754fc62385d, type: 3}
    - {fileID: 21300000, guid: c835fc521da3de24d85509e4226d9871, type: 3}
    - {fileID: 21300000, guid: 72227afd7ef1b394ab44eab914294ab2, type: 3}
    - {fileID: 21300000, guid: e41bb0e3771db6f48bdf3c542d09c009, type: 3}
    - {fileID: 21300000, guid: 2c50165f1f617c4478ef7d082eeb2239, type: 3}
    - {fileID: 21300000, guid: 3ecdf39dd47281e4e92768d84dd22ec0, type: 3}
    - {fileID: 21300000, guid: a2a0b70544fb4334180c0349349db050, type: 3}
    - {fileID: 21300000, guid: 70897cb78c057d2458c7cc3dd5f88453, type: 3}
    - {fileID: 21300000, guid: 0d5643aaa63b23044b627abc49c26703, type: 3}
    - {fileID: 21300000, guid: 4f1f3e49f57c04044818a1e7ebf31a5a, type: 3}
    - {fileID: 21300000, guid: 954c926e58634744f93beabaf9218f2f, type: 3}
    - {fileID: 21300000, guid: 31b30c783a1066247a1f11b7207b9665, type: 3}
    - {fileID: 21300000, guid: 2d25a49f5e18e5048baafec513d4af59, type: 3}
    - {fileID: 21300000, guid: 5cbc1058dd8faa4458196557d0faa3b0, type: 3}
    - {fileID: 21300000, guid: a6817da6ffac05f4f98ee075bec56474, type: 3}
    - {fileID: 21300000, guid: 3ca4f6bc28911fb4e92f84e77011cb1a, type: 3}
  m_AnimationClipSettings:
    serializedVersion: 2
    m_AdditiveReferencePoseClip: {fileID: 0}
    m_AdditiveReferencePoseTime: 0
    m_StartTime: 0
    m_StopTime: 0.33333334
    m_OrientationOffsetY: 0
    m_Level: 0
    m_CycleOffset: 0
    m_HasAdditiveReferencePose: 0
    m_LoopTime: 1
    m_LoopBlend: 0
    m_LoopBlendOrientation: 0
    m_LoopBlendPositionY: 0
    m_LoopBlendPositionXZ: 0
    m_KeepOriginalOrientation: 0
    m_KeepOriginalPositionY: 1
    m_KeepOriginalPositionXZ: 0
    m_HeightFromFeet: 0
    m_Mirror: 0
  m_EditorCurves: []
  m_EulerEditorCurves: []
  m_HasGenericRootTransform: 0
  m_HasMotionFloatCurves: 0
  m_Events: []
