%YAML 1.1
%TAG !u! tag:unity3d.com,2011:
--- !u!74 &7400000
AnimationClip:
  m_ObjectHideFlags: 0
  m_CorrespondingSourceObject: {fileID: 0}
  m_PrefabInstance: {fileID: 0}
  m_PrefabAsset: {fileID: 0}
  m_Name: ZombieIdle
  serializedVersion: 6
  m_Legacy: 0
  m_Compressed: 0
  m_UseHighQualityCurve: 1
  m_RotationCurves: []
  m_CompressedRotationCurves: []
  m_EulerCurves: []
  m_PositionCurves: []
  m_ScaleCurves: []
  m_FloatCurves: []
  m_PPtrCurves:
  - curve:
    - time: 0
      value: {fileID: 21300000, guid: 46a3baa3a0cbf0c4382693ec0aa7f934, type: 3}
    - time: 0.083333336
      value: {fileID: 21300000, guid: 55a9314dff542a04da93154099f794c4, type: 3}
    - time: 0.16666667
      value: {fileID: 21300000, guid: 51f42472237d9c840a2662fb7ce14edb, type: 3}
    - time: 0.25
      value: {fileID: 21300000, guid: 2c8894dc345eeba429bf8b1bc202f427, type: 3}
    - time: 0.33333334
      value: {fileID: 21300000, guid: d312480ce71d40d4699dc11cccc1ec92, type: 3}
    - time: 0.41666666
      value: {fileID: 21300000, guid: 0f8788eb66de0f84483579c8f91129d9, type: 3}
    - time: 0.5
      value: {fileID: 21300000, guid: 2098cb26daca0bd4bb482b525a087a88, type: 3}
    - time: 0.5833333
      value: {fileID: 21300000, guid: 56d03518e6df58745a6b26a16af1ffa4, type: 3}
    - time: 0.6666667
      value: {fileID: 21300000, guid: b446367643ae77a4ba3635a8f2e4a219, type: 3}
    - time: 0.75
      value: {fileID: 21300000, guid: 4c901518ee2a56a4da311499834ca3b3, type: 3}
    - time: 0.8333333
      value: {fileID: 21300000, guid: df687ea6f0d204a4bac677fab6f07e45, type: 3}
    - time: 0.9166667
      value: {fileID: 21300000, guid: 365788038272ef24a9e0f26aac03f55c, type: 3}
    - time: 1
      value: {fileID: 21300000, guid: 55681702a43f2504d926ded225e07274, type: 3}
    - time: 1.0833334
      value: {fileID: 21300000, guid: 412fff5fe61e773469d4d3609510758e, type: 3}
    - time: 1.1666666
      value: {fileID: 21300000, guid: fdaea2a3414745642bb2b5ef80da91e4, type: 3}
    - time: 1.25
      value: {fileID: 21300000, guid: 4a1829f2ca33fa64283569fc7dc2e652, type: 3}
    - time: 1.3333334
      value: {fileID: 21300000, guid: 5cf99c905561f5d47b4ec48bd88057ab, type: 3}
    attribute: m_Sprite
    path: 
    classID: 212
    script: {fileID: 0}
  m_SampleRate: 12
  m_WrapMode: 0
  m_Bounds:
    m_Center: {x: 0, y: 0, z: 0}
    m_Extent: {x: 0, y: 0, z: 0}
  m_ClipBindingConstant:
    genericBindings:
    - serializedVersion: 2
      path: 0
      attribute: 0
      script: {fileID: 0}
      typeID: 212
      customType: 23
      isPPtrCurve: 1
    pptrCurveMapping:
    - {fileID: 21300000, guid: 46a3baa3a0cbf0c4382693ec0aa7f934, type: 3}
    - {fileID: 21300000, guid: 55a9314dff542a04da93154099f794c4, type: 3}
    - {fileID: 21300000, guid: 51f42472237d9c840a2662fb7ce14edb, type: 3}
    - {fileID: 21300000, guid: 2c8894dc345eeba429bf8b1bc202f427, type: 3}
    - {fileID: 21300000, guid: d312480ce71d40d4699dc11cccc1ec92, type: 3}
    - {fileID: 21300000, guid: 0f8788eb66de0f84483579c8f91129d9, type: 3}
    - {fileID: 21300000, guid: 2098cb26daca0bd4bb482b525a087a88, type: 3}
    - {fileID: 21300000, guid: 56d03518e6df58745a6b26a16af1ffa4, type: 3}
    - {fileID: 21300000, guid: b446367643ae77a4ba3635a8f2e4a219, type: 3}
    - {fileID: 21300000, guid: 4c901518ee2a56a4da311499834ca3b3, type: 3}
    - {fileID: 21300000, guid: df687ea6f0d204a4bac677fab6f07e45, type: 3}
    - {fileID: 21300000, guid: 365788038272ef24a9e0f26aac03f55c, type: 3}
    - {fileID: 21300000, guid: 55681702a43f2504d926ded225e07274, type: 3}
    - {fileID: 21300000, guid: 412fff5fe61e773469d4d3609510758e, type: 3}
    - {fileID: 21300000, guid: fdaea2a3414745642bb2b5ef80da91e4, type: 3}
    - {fileID: 21300000, guid: 4a1829f2ca33fa64283569fc7dc2e652, type: 3}
    - {fileID: 21300000, guid: 5cf99c905561f5d47b4ec48bd88057ab, type: 3}
  m_AnimationClipSettings:
    serializedVersion: 2
    m_AdditiveReferencePoseClip: {fileID: 0}
    m_AdditiveReferencePoseTime: 0
    m_StartTime: 0
    m_StopTime: 1.4166667
    m_OrientationOffsetY: 0
    m_Level: 0
    m_CycleOffset: 0
    m_HasAdditiveReferencePose: 0
    m_LoopTime: 1
    m_LoopBlend: 0
    m_LoopBlendOrientation: 0
    m_LoopBlendPositionY: 0
    m_LoopBlendPositionXZ: 0
    m_KeepOriginalOrientation: 0
    m_KeepOriginalPositionY: 1
    m_KeepOriginalPositionXZ: 0
    m_HeightFromFeet: 0
    m_Mirror: 0
  m_EditorCurves: []
  m_EulerEditorCurves: []
  m_HasGenericRootTransform: 0
  m_HasMotionFloatCurves: 0
  m_Events: []
