%YAML 1.1
%TAG !u! tag:unity3d.com,2011:
--- !u!74 &7400000
AnimationClip:
  m_ObjectHideFlags: 0
  m_CorrespondingSourceObject: {fileID: 0}
  m_PrefabInstance: {fileID: 0}
  m_PrefabAsset: {fileID: 0}
  m_Name: ZombieMove
  serializedVersion: 6
  m_Legacy: 0
  m_Compressed: 0
  m_UseHighQualityCurve: 1
  m_RotationCurves: []
  m_CompressedRotationCurves: []
  m_EulerCurves: []
  m_PositionCurves: []
  m_ScaleCurves: []
  m_FloatCurves: []
  m_PPtrCurves:
  - curve:
    - time: 0
      value: {fileID: 21300000, guid: 9c52e3817af7b2e4c8ff7f931105f97a, type: 3}
    - time: 0.016666668
      value: {fileID: 21300000, guid: de7cb21174f96f442bb0f463180147aa, type: 3}
    - time: 0.033333335
      value: {fileID: 21300000, guid: 206a95a5a6af3174d8de753dbf154e20, type: 3}
    - time: 0.05
      value: {fileID: 21300000, guid: 9cb9b6ea50b2c7448b40a4c8d949ab57, type: 3}
    - time: 0.06666667
      value: {fileID: 21300000, guid: ab6253cdf5df6934babf798c9cd132dd, type: 3}
    - time: 0.083333336
      value: {fileID: 21300000, guid: 492eab4dbd225e54a810f8cadf4f7e6e, type: 3}
    - time: 0.1
      value: {fileID: 21300000, guid: 9858667e8b87e524994b9d9d3694a124, type: 3}
    - time: 0.11666667
      value: {fileID: 21300000, guid: b9fa5d6e27595734382d63923be7b2d5, type: 3}
    - time: 0.13333334
      value: {fileID: 21300000, guid: d1076f040c700a444abe94543897ce06, type: 3}
    - time: 0.15
      value: {fileID: 21300000, guid: b723b662a1c3fab4c818c423f27657d6, type: 3}
    - time: 0.16666667
      value: {fileID: 21300000, guid: d1b43a198fc3a6c4287812c93a7ab8b2, type: 3}
    - time: 0.18333334
      value: {fileID: 21300000, guid: a35903bbec79b0740ad3036ae1199165, type: 3}
    - time: 0.2
      value: {fileID: 21300000, guid: 7b787cf918ceef643aac8605d604e4d2, type: 3}
    - time: 0.21666667
      value: {fileID: 21300000, guid: e502eea0b2c94c94bbddfd50c6f2cf73, type: 3}
    - time: 0.23333333
      value: {fileID: 21300000, guid: f5afe1ed18796b444a54dc30494e5615, type: 3}
    - time: 0.25
      value: {fileID: 21300000, guid: a076cc58a32b67140be477cef26d539e, type: 3}
    - time: 0.26666668
      value: {fileID: 21300000, guid: c7cc3d6294bb2fd40b8afd9564e8d959, type: 3}
    attribute: m_Sprite
    path: 
    classID: 212
    script: {fileID: 0}
  m_SampleRate: 60
  m_WrapMode: 0
  m_Bounds:
    m_Center: {x: 0, y: 0, z: 0}
    m_Extent: {x: 0, y: 0, z: 0}
  m_ClipBindingConstant:
    genericBindings:
    - serializedVersion: 2
      path: 0
      attribute: 0
      script: {fileID: 0}
      typeID: 212
      customType: 23
      isPPtrCurve: 1
    pptrCurveMapping:
    - {fileID: 21300000, guid: 9c52e3817af7b2e4c8ff7f931105f97a, type: 3}
    - {fileID: 21300000, guid: de7cb21174f96f442bb0f463180147aa, type: 3}
    - {fileID: 21300000, guid: 206a95a5a6af3174d8de753dbf154e20, type: 3}
    - {fileID: 21300000, guid: 9cb9b6ea50b2c7448b40a4c8d949ab57, type: 3}
    - {fileID: 21300000, guid: ab6253cdf5df6934babf798c9cd132dd, type: 3}
    - {fileID: 21300000, guid: 492eab4dbd225e54a810f8cadf4f7e6e, type: 3}
    - {fileID: 21300000, guid: 9858667e8b87e524994b9d9d3694a124, type: 3}
    - {fileID: 21300000, guid: b9fa5d6e27595734382d63923be7b2d5, type: 3}
    - {fileID: 21300000, guid: d1076f040c700a444abe94543897ce06, type: 3}
    - {fileID: 21300000, guid: b723b662a1c3fab4c818c423f27657d6, type: 3}
    - {fileID: 21300000, guid: d1b43a198fc3a6c4287812c93a7ab8b2, type: 3}
    - {fileID: 21300000, guid: a35903bbec79b0740ad3036ae1199165, type: 3}
    - {fileID: 21300000, guid: 7b787cf918ceef643aac8605d604e4d2, type: 3}
    - {fileID: 21300000, guid: e502eea0b2c94c94bbddfd50c6f2cf73, type: 3}
    - {fileID: 21300000, guid: f5afe1ed18796b444a54dc30494e5615, type: 3}
    - {fileID: 21300000, guid: a076cc58a32b67140be477cef26d539e, type: 3}
    - {fileID: 21300000, guid: c7cc3d6294bb2fd40b8afd9564e8d959, type: 3}
  m_AnimationClipSettings:
    serializedVersion: 2
    m_AdditiveReferencePoseClip: {fileID: 0}
    m_AdditiveReferencePoseTime: 0
    m_StartTime: 0
    m_StopTime: 0.28333336
    m_OrientationOffsetY: 0
    m_Level: 0
    m_CycleOffset: 0
    m_HasAdditiveReferencePose: 0
    m_LoopTime: 1
    m_LoopBlend: 0
    m_LoopBlendOrientation: 0
    m_LoopBlendPositionY: 0
    m_LoopBlendPositionXZ: 0
    m_KeepOriginalOrientation: 0
    m_KeepOriginalPositionY: 1
    m_KeepOriginalPositionXZ: 0
    m_HeightFromFeet: 0
    m_Mirror: 0
  m_EditorCurves: []
  m_EulerEditorCurves: []
  m_HasGenericRootTransform: 0
  m_HasMotionFloatCurves: 0
  m_Events: []
