%YAML 1.1
%TAG !u! tag:unity3d.com,2011:
--- !u!1 &4593447178153789327
GameObject:
  m_ObjectHideFlags: 0
  m_CorrespondingSourceObject: {fileID: 0}
  m_PrefabInstance: {fileID: 0}
  m_PrefabAsset: {fileID: 0}
  serializedVersion: 6
  m_Component:
  - component: {fileID: 4593447178153789320}
  - component: {fileID: 8742637898801916591}
  - component: {fileID: 2018111312961398721}
  m_Layer: 13
  m_Name: ZombieClaws
  m_TagString: Untagged
  m_Icon: {fileID: 0}
  m_NavMeshLayer: 0
  m_StaticEditorFlags: 0
  m_IsActive: 1
--- !u!4 &4593447178153789320
Transform:
  m_ObjectHideFlags: 0
  m_CorrespondingSourceObject: {fileID: 0}
  m_PrefabInstance: {fileID: 0}
  m_PrefabAsset: {fileID: 0}
  m_GameObject: {fileID: 4593447178153789327}
  m_LocalRotation: {x: 0, y: 0, z: 0, w: 1}
  m_LocalPosition: {x: 0, y: 0, z: 0}
  m_LocalScale: {x: 1, y: 1, z: 1}
  m_Children: []
  m_Father: {fileID: 0}
  m_RootOrder: 0
  m_LocalEulerAnglesHint: {x: 0, y: 0, z: 0}
--- !u!114 &8742637898801916591
MonoBehaviour:
  m_ObjectHideFlags: 0
  m_CorrespondingSourceObject: {fileID: 0}
  m_PrefabInstance: {fileID: 0}
  m_PrefabAsset: {fileID: 0}
  m_GameObject: {fileID: 4593447178153789327}
  m_Enabled: 1
  m_EditorHideFlags: 0
  m_Script: {fileID: 11500000, guid: dcab92547b629a94ab85c86efb724dff, type: 3}
  m_Name: 
  m_EditorClassIdentifier: 
  WeaponName: 
  WeaponCurrentlyActive: 1
  TriggerMode: 1
  DelayBeforeUse: 0.4
  DelayBeforeUseReleaseInterruption: 0
  TimeBetweenUses: 0.7
  TimeBetweenUsesReleaseInterruption: 0
  MagazineBased: 0
  MagazineSize: 30
  AutoReload: 0
  ReloadTime: 2
  AmmoConsumedPerShot: 1
  AutoDestroyWhenEmpty: 0
  AutoDestroyWhenEmptyDelay: 1
  CurrentAmmoLoaded: 0
  WeaponAttachmentOffset: {x: 0, y: 0, z: 0}
  FlipWeaponOnCharacterFlip: 1
  RightFacingFlipValue: {x: 1, y: 1, z: 1}
  LeftFacingFlipValue: {x: -1, y: 1, z: 1}
  WeaponUseTransform: {fileID: 0}
  LeftHandHandle: {fileID: 0}
  RightHandHandle: {fileID: 0}
  ModifyMovementWhileAttacking: 0
  MovementMultiplier: 0
  PreventAllMovementWhileInUse: 1
  RecoilForce: 0
  Animators: []
  WeaponAnimationID: 0
  IdleAnimationParameter: 
  StartAnimationParameter: StartAttack
  DelayBeforeUseAnimationParameter: 
  SingleUseAnimationParameter: 
  UseAnimationParameter: IsAttack
  DelayBetweenUsesAnimationParameter: 
  StopAnimationParameter: StopAttack
  ReloadStartAnimationParameter: 
  ReloadAnimationParameter: 
  ReloadStopAnimationParameter: 
  WeaponAngleAnimationParameter: 
  WeaponAngleRelativeAnimationParameter: 
  WeaponStartMMFeedback: {fileID: 0}
  WeaponUsedMMFeedback: {fileID: 0}
  WeaponStopMMFeedback: {fileID: 0}
  WeaponReloadMMFeedback: {fileID: 0}
  WeaponReloadNeededMMFeedback: {fileID: 0}
  InitializeOnStart: 0
  Interruptable: 0
  Flipped: 0
  DamageAreaShape: 0
  AreaSize: {x: 1, y: 1, z: 0}
  AreaOffset: {x: 1, y: 0, z: 0}
  HitDamageableFeedback: {fileID: 0}
  HitNonDamageableFeedback: {fileID: 0}
  InitialDelay: 0
  ActiveDuration: 0.1
  TargetLayerMask:
    serializedVersion: 2
    m_Bits: 9472
  DamageCaused: 10
  Knockback: 1
  KnockbackForce: {x: 100, y: 2, z: 0}
  InvincibilityDuration: 0.5
  CanDamageOwner: 0
  UseOwnerAnimator: 1
  baseDamage: 5
--- !u!114 &2018111312961398721
MonoBehaviour:
  m_ObjectHideFlags: 0
  m_CorrespondingSourceObject: {fileID: 0}
  m_PrefabInstance: {fileID: 0}
  m_PrefabAsset: {fileID: 0}
  m_GameObject: {fileID: 4593447178153789327}
  m_Enabled: 1
  m_EditorHideFlags: 0
  m_Script: {fileID: 11500000, guid: d95b43f6344adc448a84bce4c0dcbe58, type: 3}
  m_Name: 
  m_EditorClassIdentifier: 
  AimControl: 4
  RotationMode: 0
  WeaponRotationSpeed: 100
  MinimumAngle: -180
  MaximumAngle: 180
  MinimumMagnitude: 0.2
  ReticleType: 0
  Reticle: {fileID: 0}
  ReticleDistance: 0
  ReticleHeight: 0
  ReticleAtMousePosition: 0
  RotateReticle: 0
  ReplaceMousePointer: 1
  MouseDeadZoneRadius: 0.5
  DisplayReticle: 1
  MoveCameraTargetTowardsReticle: 0
  CameraTargetOffset: 0.3
  CameraTargetMaxDistance: 10
  CameraTargetSpeed: 5
  projectileStartPos: {fileID: 0}
  IsCharacterRotation: 1
