%YAML 1.1
%TAG !u! tag:unity3d.com,2011:
--- !u!114 &11400000
MonoBehaviour:
  m_ObjectHideFlags: 0
  m_CorrespondingSourceObject: {fileID: 0}
  m_PrefabInstance: {fileID: 0}
  m_PrefabAsset: {fileID: 0}
  m_GameObject: {fileID: 0}
  m_Enabled: 1
  m_EditorHideFlags: 0
  m_Script: {fileID: 11500000, guid: 0b8ed828bab531946aaacc2532f9b75a, type: 3}
  m_Name: Grenade
  m_EditorClassIdentifier: 
  name: Grenade
  path: Items/UsableItems/ThrowingItems/Grenade
  id: 602
  icon: {fileID: 21300000, guid: e9129476e8a39eb4e9bd143a661f067a, type: 3}
  description: Very explosively
  estimatedCost: 250
  isStackable: 1
  maxStackCount: 5
  tags:
  - Usable
  - Throwing
  type: 2
  useType: 0
  isConsumable: 1
  useSound: {fileID: 0}
  projectile: {fileID: 636597742892146502, guid: 95284e2c9ddbf3d429329a18f45a234e,
    type: 3}
