%YAML 1.1
%TAG !u! tag:unity3d.com,2011:
--- !u!114 &11400000
MonoBehaviour:
  m_ObjectHideFlags: 0
  m_CorrespondingSourceObject: {fileID: 0}
  m_PrefabInstance: {fileID: 0}
  m_PrefabAsset: {fileID: 0}
  m_GameObject: {fileID: 0}
  m_Enabled: 1
  m_EditorHideFlags: 0
  m_Script: {fileID: 11500000, guid: 5a55cc62a9377bb4c89db4295c52df8f, type: 3}
  m_Name: ShieldPower
  m_EditorClassIdentifier: 
  name: Shield power
  shortName: SP
  id: 25
  imageName: ShieldPower
  cap: 0
  curCap: 0
  useValueOnly: 0
  description: 
